[gd_scene load_steps=2 format=2]

[ext_resource path="res://Elements/SparkEmiter/spark1.png" type="Texture" id=1]

[node name="SparkEmiter" type="Node2D"]

[node name="CPUParticles2D" type="CPUParticles2D" parent="."]
rotation = 0.00785635
z_index = -1
amount = 4
explosiveness = 0.1
texture = ExtResource( 1 )
direction = Vector2( 0, 1 )
spread = 90.0
initial_velocity = 27.53
angle_random = 1.0
