[gd_scene load_steps=2 format=2]

[ext_resource path="res://Elements/GravAreas/GravArea.gd" type="Script" id=1]

[node name="GravArea" type="Area2D"]
space_override = 2
collision_layer = 3
collision_mask = 3
script = ExtResource( 1 )
[connection signal="body_entered" from="." to="." method="_on_GravArea_body_entered"]
[connection signal="body_exited" from="." to="." method="_on_GravArea_body_exited"]
