[gd_scene load_steps=8 format=2]

[sub_resource type="GDScript" id=1]
script/source = "tool
extends CollisionPolygon2D

export var resetChildren := false setget resetChildren


func resetChildren(value):
	resetChildren = false
	if has_node(\"Line2D\"):
		pass
	else:
		var a = Line2D.new()
		add_child(a)
		a.owner = self.owner
	if has_node(\"Polygon2D\"):
		pass
	else:
		var a = Polygon2D.new()
		add_child(a)
		a.owner = self.owner

	$Polygon2D.polygon = polygon

	var p: = polygon
	if p.size() > 0:
		p.push_back(p[0])
		p.push_back(p[1])
	$Line2D.points = p




var temp = null


func _process(delta):
	if temp != polygon:
		temp = polygon
		resetChildren(true)
"

[sub_resource type="VisualShaderNodeInput" id=2]
output_port_for_preview = 0
input_name = "uv"

[sub_resource type="VisualShaderNodeVectorDecompose" id=3]
output_port_for_preview = 1

[sub_resource type="VisualShaderNodeScalarOp" id=4]
default_input_values = [ 0, 0.0, 1, 2.0 ]
operator = 2

[sub_resource type="VisualShaderNodeScalarFunc" id=5]
function = 14

[sub_resource type="VisualShader" id=6]
code = "shader_type canvas_item;



void vertex() {
// Output:0

}

void fragment() {
// Input:2
	vec3 n_out2p0 = vec3(UV, 0.0);

// VectorDecompose:5
	float n_out5p0 = n_out2p0.x;
	float n_out5p1 = n_out2p0.y;
	float n_out5p2 = n_out2p0.z;

// ScalarOp:6
	float n_in6p1 = 2.00000;
	float n_out6p0 = n_out5p1 * n_in6p1;

// ScalarFunc:7
	float n_out7p0 = floor(n_out6p0);

// Output:0
	COLOR.a = n_out7p0;

}

void light() {
// Output:0

}
"
graph_offset = Vector2( -824, -7.25 )
mode = 1
flags/light_only = false
nodes/fragment/0/position = Vector2( 820, 160 )
nodes/fragment/2/node = SubResource( 2 )
nodes/fragment/2/position = Vector2( -420, 120 )
nodes/fragment/5/node = SubResource( 3 )
nodes/fragment/5/position = Vector2( -200, 100 )
nodes/fragment/6/node = SubResource( 4 )
nodes/fragment/6/position = Vector2( 128, 69.75 )
nodes/fragment/7/node = SubResource( 5 )
nodes/fragment/7/position = Vector2( 540, 59.75 )
nodes/fragment/connections = PoolIntArray( 2, 0, 5, 0, 5, 1, 6, 0, 6, 0, 7, 0, 7, 0, 0, 1 )

[sub_resource type="ShaderMaterial" id=7]
shader = SubResource( 6 )

[node name="LevelGeomtry" type="StaticBody2D"]

[node name="LevelGeo" type="CollisionPolygon2D" parent="."]
polygon = PoolVector2Array( 0, -64, 64, 0, 0, 64, -64, 0 )
script = SubResource( 1 )
__meta__ = {
"_edit_group_": true
}

[node name="Polygon2D" type="Polygon2D" parent="LevelGeo"]
color = Color( 0.168627, 0.0588235, 0.329412, 1 )
polygon = PoolVector2Array( 0, -64, 64, 0, 0, 64, -64, 0 )

[node name="Line2D" type="Line2D" parent="LevelGeo"]
material = SubResource( 7 )
points = PoolVector2Array( 0, -64, 64, 0, 0, 64, -64, 0, 0, -64, 64, 0 )
width = 6.0
default_color = Color( 0.286275, 0.905882, 0.92549, 1 )
texture_mode = 2
