[gd_scene load_steps=51 format=2]

[ext_resource path="res://Elements/Tilesetuff/baseTileset.png" type="Texture" id=1]
[ext_resource path="res://Elements/FoxCharacter/Fox.tscn" type="PackedScene" id=2]

[sub_resource type="ConvexPolygonShape2D" id=1]
points = PoolVector2Array( 32, 32, 0, 32, 0, 0, 32, 0 )

[sub_resource type="ConvexPolygonShape2D" id=2]
points = PoolVector2Array( 32, 32, 0, 32, 0, 0, 32, 0 )

[sub_resource type="ConvexPolygonShape2D" id=3]
points = PoolVector2Array( 32, 32, 0, 32, 0, 0, 32, 0 )

[sub_resource type="ConvexPolygonShape2D" id=4]
points = PoolVector2Array( 32, 32, 0, 32, 0, 0, 32, 0 )

[sub_resource type="ConvexPolygonShape2D" id=5]
points = PoolVector2Array( 32, 32, 0, 32, 0, 0, 32, 0 )

[sub_resource type="ConvexPolygonShape2D" id=6]
points = PoolVector2Array( 32, 32, 0, 32, 0, 0, 32, 0 )

[sub_resource type="ConvexPolygonShape2D" id=7]
points = PoolVector2Array( 32, 32, 0, 32, 0, 0, 32, 0 )

[sub_resource type="ConvexPolygonShape2D" id=8]
points = PoolVector2Array( 32, 32, 0, 32, 0, 0, 32, 0 )

[sub_resource type="ConvexPolygonShape2D" id=9]
points = PoolVector2Array( 32, 32, 0, 32, 0, 0, 32, 0 )

[sub_resource type="ConvexPolygonShape2D" id=10]
points = PoolVector2Array( 32, 32, 0, 32, 0, 0, 32, 0 )

[sub_resource type="ConvexPolygonShape2D" id=11]
points = PoolVector2Array( 32, 32, 0, 32, 0, 0, 32, 0 )

[sub_resource type="ConvexPolygonShape2D" id=12]
points = PoolVector2Array( 32, 32, 0, 32, 0, 0, 32, 0 )

[sub_resource type="ConvexPolygonShape2D" id=13]
points = PoolVector2Array( 32, 32, 0, 32, 0, 0, 32, 0 )

[sub_resource type="ConvexPolygonShape2D" id=14]
points = PoolVector2Array( 32, 32, 0, 32, 0, 0, 32, 0 )

[sub_resource type="ConvexPolygonShape2D" id=15]
points = PoolVector2Array( 32, 32, 0, 32, 0, 0, 32, 0 )

[sub_resource type="ConvexPolygonShape2D" id=16]
points = PoolVector2Array( 32, 32, 0, 32, 0, 0, 32, 0 )

[sub_resource type="ConvexPolygonShape2D" id=17]
points = PoolVector2Array( 32, 32, 0, 32, 0, 0, 32, 0 )

[sub_resource type="ConvexPolygonShape2D" id=18]
points = PoolVector2Array( 32, 32, 0, 32, 0, 0, 32, 0 )

[sub_resource type="ConvexPolygonShape2D" id=19]
points = PoolVector2Array( 32, 32, 0, 32, 0, 0, 32, 0 )

[sub_resource type="ConvexPolygonShape2D" id=20]
points = PoolVector2Array( 32, 32, 0, 32, 0, 0, 32, 0 )

[sub_resource type="ConvexPolygonShape2D" id=21]
points = PoolVector2Array( 0, 0, 32, 0, 32, 32, 0, 32 )

[sub_resource type="ConvexPolygonShape2D" id=22]
points = PoolVector2Array( 32, 32, 0, 32, 0, 0, 32, 0 )

[sub_resource type="ConvexPolygonShape2D" id=23]
points = PoolVector2Array( 32, 32, 0, 32, 0, 0, 32, 0 )

[sub_resource type="ConvexPolygonShape2D" id=24]
points = PoolVector2Array( 32, 32, 0, 32, 0, 0, 32, 0 )

[sub_resource type="ConvexPolygonShape2D" id=25]
points = PoolVector2Array( 32, 32, 0, 32, 0, 0, 32, 0 )

[sub_resource type="ConvexPolygonShape2D" id=26]
points = PoolVector2Array( 32, 32, 0, 32, 0, 0, 32, 0 )

[sub_resource type="ConvexPolygonShape2D" id=27]
points = PoolVector2Array( 32, 32, 0, 32, 0, 0, 32, 0 )

[sub_resource type="ConvexPolygonShape2D" id=28]
points = PoolVector2Array( 32, 32, 0, 32, 0, 0, 32, 0 )

[sub_resource type="ConvexPolygonShape2D" id=29]
points = PoolVector2Array( 32, 32, 0, 32, 0, 0, 32, 0 )

[sub_resource type="ConvexPolygonShape2D" id=30]
points = PoolVector2Array( 32, 32, 0, 32, 0, 0, 32, 0 )

[sub_resource type="ConvexPolygonShape2D" id=31]
points = PoolVector2Array( 32, 32, 0, 32, 0, 0, 32, 0 )

[sub_resource type="ConvexPolygonShape2D" id=32]
points = PoolVector2Array( 32, 32, 0, 32, 0, 0, 32, 0 )

[sub_resource type="ConvexPolygonShape2D" id=33]
points = PoolVector2Array( 32, 32, 0, 32, 0, 0, 32, 0 )

[sub_resource type="ConvexPolygonShape2D" id=34]
points = PoolVector2Array( 32, 32, 0, 32, 0, 0, 32, 0 )

[sub_resource type="ConvexPolygonShape2D" id=35]
points = PoolVector2Array( 32, 32, 0, 32, 0, 0, 32, 0 )

[sub_resource type="ConvexPolygonShape2D" id=36]
points = PoolVector2Array( 32, 32, 0, 32, 0, 0, 32, 0 )

[sub_resource type="ConvexPolygonShape2D" id=37]
points = PoolVector2Array( 32, 32, 0, 32, 0, 0, 32, 0 )

[sub_resource type="ConvexPolygonShape2D" id=38]
points = PoolVector2Array( 32, 32, 0, 32, 0, 0, 32, 0 )

[sub_resource type="ConvexPolygonShape2D" id=39]
points = PoolVector2Array( 32, 32, 0, 32, 0, 0, 32, 0 )

[sub_resource type="ConvexPolygonShape2D" id=40]
points = PoolVector2Array( 32, 32, 0, 32, 0, 0, 32, 0 )

[sub_resource type="ConvexPolygonShape2D" id=41]
points = PoolVector2Array( 32, 32, 0, 32, 0, 0, 32, 0 )

[sub_resource type="ConvexPolygonShape2D" id=42]
points = PoolVector2Array( 32, 32, 0, 32, 0, 0, 32, 0 )

[sub_resource type="ConvexPolygonShape2D" id=43]
points = PoolVector2Array( 32, 32, 0, 32, 0, 0, 32, 0 )

[sub_resource type="ConvexPolygonShape2D" id=44]
points = PoolVector2Array( 32, 32, 0, 32, 0, 0, 32, 0 )

[sub_resource type="ConvexPolygonShape2D" id=45]
points = PoolVector2Array( 32, 32, 0, 32, 0, 0, 32, 0 )

[sub_resource type="ConvexPolygonShape2D" id=46]
points = PoolVector2Array( 32, 32, 0, 32, 0, 0, 32, 0 )

[sub_resource type="ConvexPolygonShape2D" id=47]
points = PoolVector2Array( 32, 32, 0, 32, 0, 0, 32, 0 )

[sub_resource type="TileSet" id=48]
0/name = "baseTileset.png 0"
0/texture = ExtResource( 1 )
0/tex_offset = Vector2( 0, 0 )
0/modulate = Color( 1, 1, 1, 1 )
0/region = Rect2( 0, 0, 384, 128 )
0/tile_mode = 1
0/autotile/bitmask_mode = 1
0/autotile/bitmask_flags = [ Vector2( 0, 0 ), 144, Vector2( 0, 1 ), 146, Vector2( 0, 2 ), 18, Vector2( 0, 3 ), 16, Vector2( 1, 0 ), 176, Vector2( 1, 1 ), 178, Vector2( 1, 2 ), 50, Vector2( 1, 3 ), 48, Vector2( 2, 0 ), 184, Vector2( 2, 1 ), 186, Vector2( 2, 2 ), 58, Vector2( 2, 3 ), 56, Vector2( 3, 0 ), 152, Vector2( 3, 1 ), 154, Vector2( 3, 2 ), 26, Vector2( 3, 3 ), 24, Vector2( 4, 0 ), 187, Vector2( 4, 1 ), 434, Vector2( 4, 2 ), 182, Vector2( 4, 3 ), 250, Vector2( 5, 0 ), 440, Vector2( 5, 1 ), 510, Vector2( 5, 2 ), 447, Vector2( 5, 3 ), 62, Vector2( 6, 0 ), 248, Vector2( 6, 1 ), 507, Vector2( 6, 2 ), 255, Vector2( 6, 3 ), 59, Vector2( 7, 0 ), 190, Vector2( 7, 1 ), 218, Vector2( 7, 2 ), 155, Vector2( 7, 3 ), 442, Vector2( 8, 0 ), 432, Vector2( 8, 1 ), 438, Vector2( 8, 2 ), 446, Vector2( 8, 3 ), 54, Vector2( 9, 0 ), 506, Vector2( 9, 1 ), 254, Vector2( 9, 2 ), 511, Vector2( 9, 3 ), 63, Vector2( 10, 0 ), 504, Vector2( 10, 2 ), 443, Vector2( 10, 3 ), 191, Vector2( 11, 0 ), 216, Vector2( 11, 1 ), 251, Vector2( 11, 2 ), 219, Vector2( 11, 3 ), 27 ]
0/autotile/icon_coordinate = Vector2( 0, 3 )
0/autotile/tile_size = Vector2( 32, 32 )
0/autotile/spacing = 0
0/autotile/occluder_map = [  ]
0/autotile/navpoly_map = [  ]
0/autotile/priority_map = [  ]
0/autotile/z_index_map = [  ]
0/occluder_offset = Vector2( 0, 0 )
0/navigation_offset = Vector2( 0, 0 )
0/shape_offset = Vector2( 0, 0 )
0/shape_transform = Transform2D( 1, 0, 0, 1, 0, 0 )
0/shape = SubResource( 1 )
0/shape_one_way = false
0/shape_one_way_margin = 1.0
0/shapes = [ {
"autotile_coord": Vector2( 0, 0 ),
"one_way": false,
"one_way_margin": 1.0,
"shape": SubResource( 1 ),
"shape_transform": Transform2D( 1, 0, 0, 1, 0, 0 )
}, {
"autotile_coord": Vector2( 1, 0 ),
"one_way": false,
"one_way_margin": 1.0,
"shape": SubResource( 2 ),
"shape_transform": Transform2D( 1, 0, 0, 1, 0, 0 )
}, {
"autotile_coord": Vector2( 2, 0 ),
"one_way": false,
"one_way_margin": 1.0,
"shape": SubResource( 3 ),
"shape_transform": Transform2D( 1, 0, 0, 1, 0, 0 )
}, {
"autotile_coord": Vector2( 3, 0 ),
"one_way": false,
"one_way_margin": 1.0,
"shape": SubResource( 4 ),
"shape_transform": Transform2D( 1, 0, 0, 1, 0, 0 )
}, {
"autotile_coord": Vector2( 4, 0 ),
"one_way": false,
"one_way_margin": 1.0,
"shape": SubResource( 5 ),
"shape_transform": Transform2D( 1, 0, 0, 1, 0, 0 )
}, {
"autotile_coord": Vector2( 5, 0 ),
"one_way": false,
"one_way_margin": 1.0,
"shape": SubResource( 6 ),
"shape_transform": Transform2D( 1, 0, 0, 1, 0, 0 )
}, {
"autotile_coord": Vector2( 6, 0 ),
"one_way": false,
"one_way_margin": 1.0,
"shape": SubResource( 7 ),
"shape_transform": Transform2D( 1, 0, 0, 1, 0, 0 )
}, {
"autotile_coord": Vector2( 7, 0 ),
"one_way": false,
"one_way_margin": 1.0,
"shape": SubResource( 8 ),
"shape_transform": Transform2D( 1, 0, 0, 1, 0, 0 )
}, {
"autotile_coord": Vector2( 8, 0 ),
"one_way": false,
"one_way_margin": 1.0,
"shape": SubResource( 9 ),
"shape_transform": Transform2D( 1, 0, 0, 1, 0, 0 )
}, {
"autotile_coord": Vector2( 9, 0 ),
"one_way": false,
"one_way_margin": 1.0,
"shape": SubResource( 10 ),
"shape_transform": Transform2D( 1, 0, 0, 1, 0, 0 )
}, {
"autotile_coord": Vector2( 10, 0 ),
"one_way": false,
"one_way_margin": 1.0,
"shape": SubResource( 11 ),
"shape_transform": Transform2D( 1, 0, 0, 1, 0, 0 )
}, {
"autotile_coord": Vector2( 11, 0 ),
"one_way": false,
"one_way_margin": 1.0,
"shape": SubResource( 12 ),
"shape_transform": Transform2D( 1, 0, 0, 1, 0, 0 )
}, {
"autotile_coord": Vector2( 0, 1 ),
"one_way": false,
"one_way_margin": 1.0,
"shape": SubResource( 13 ),
"shape_transform": Transform2D( 1, 0, 0, 1, 0, 0 )
}, {
"autotile_coord": Vector2( 1, 1 ),
"one_way": false,
"one_way_margin": 1.0,
"shape": SubResource( 14 ),
"shape_transform": Transform2D( 1, 0, 0, 1, 0, 0 )
}, {
"autotile_coord": Vector2( 2, 1 ),
"one_way": false,
"one_way_margin": 1.0,
"shape": SubResource( 15 ),
"shape_transform": Transform2D( 1, 0, 0, 1, 0, 0 )
}, {
"autotile_coord": Vector2( 3, 1 ),
"one_way": false,
"one_way_margin": 1.0,
"shape": SubResource( 16 ),
"shape_transform": Transform2D( 1, 0, 0, 1, 0, 0 )
}, {
"autotile_coord": Vector2( 4, 1 ),
"one_way": false,
"one_way_margin": 1.0,
"shape": SubResource( 17 ),
"shape_transform": Transform2D( 1, 0, 0, 1, 0, 0 )
}, {
"autotile_coord": Vector2( 5, 1 ),
"one_way": false,
"one_way_margin": 1.0,
"shape": SubResource( 18 ),
"shape_transform": Transform2D( 1, 0, 0, 1, 0, 0 )
}, {
"autotile_coord": Vector2( 6, 1 ),
"one_way": false,
"one_way_margin": 1.0,
"shape": SubResource( 19 ),
"shape_transform": Transform2D( 1, 0, 0, 1, 0, 0 )
}, {
"autotile_coord": Vector2( 7, 1 ),
"one_way": false,
"one_way_margin": 1.0,
"shape": SubResource( 20 ),
"shape_transform": Transform2D( 1, 0, 0, 1, 0, 0 )
}, {
"autotile_coord": Vector2( 8, 1 ),
"one_way": false,
"one_way_margin": 1.0,
"shape": SubResource( 21 ),
"shape_transform": Transform2D( 1, 0, 0, 1, 0, 0 )
}, {
"autotile_coord": Vector2( 9, 1 ),
"one_way": false,
"one_way_margin": 1.0,
"shape": SubResource( 22 ),
"shape_transform": Transform2D( 1, 0, 0, 1, 0, 0 )
}, {
"autotile_coord": Vector2( 11, 1 ),
"one_way": false,
"one_way_margin": 1.0,
"shape": SubResource( 23 ),
"shape_transform": Transform2D( 1, 0, 0, 1, 0, 0 )
}, {
"autotile_coord": Vector2( 0, 2 ),
"one_way": false,
"one_way_margin": 1.0,
"shape": SubResource( 24 ),
"shape_transform": Transform2D( 1, 0, 0, 1, 0, 0 )
}, {
"autotile_coord": Vector2( 1, 2 ),
"one_way": false,
"one_way_margin": 1.0,
"shape": SubResource( 25 ),
"shape_transform": Transform2D( 1, 0, 0, 1, 0, 0 )
}, {
"autotile_coord": Vector2( 2, 2 ),
"one_way": false,
"one_way_margin": 1.0,
"shape": SubResource( 26 ),
"shape_transform": Transform2D( 1, 0, 0, 1, 0, 0 )
}, {
"autotile_coord": Vector2( 3, 2 ),
"one_way": false,
"one_way_margin": 1.0,
"shape": SubResource( 27 ),
"shape_transform": Transform2D( 1, 0, 0, 1, 0, 0 )
}, {
"autotile_coord": Vector2( 4, 2 ),
"one_way": false,
"one_way_margin": 1.0,
"shape": SubResource( 28 ),
"shape_transform": Transform2D( 1, 0, 0, 1, 0, 0 )
}, {
"autotile_coord": Vector2( 5, 2 ),
"one_way": false,
"one_way_margin": 1.0,
"shape": SubResource( 29 ),
"shape_transform": Transform2D( 1, 0, 0, 1, 0, 0 )
}, {
"autotile_coord": Vector2( 6, 2 ),
"one_way": false,
"one_way_margin": 1.0,
"shape": SubResource( 30 ),
"shape_transform": Transform2D( 1, 0, 0, 1, 0, 0 )
}, {
"autotile_coord": Vector2( 7, 2 ),
"one_way": false,
"one_way_margin": 1.0,
"shape": SubResource( 31 ),
"shape_transform": Transform2D( 1, 0, 0, 1, 0, 0 )
}, {
"autotile_coord": Vector2( 8, 2 ),
"one_way": false,
"one_way_margin": 1.0,
"shape": SubResource( 32 ),
"shape_transform": Transform2D( 1, 0, 0, 1, 0, 0 )
}, {
"autotile_coord": Vector2( 9, 2 ),
"one_way": false,
"one_way_margin": 1.0,
"shape": SubResource( 33 ),
"shape_transform": Transform2D( 1, 0, 0, 1, 0, 0 )
}, {
"autotile_coord": Vector2( 10, 2 ),
"one_way": false,
"one_way_margin": 1.0,
"shape": SubResource( 34 ),
"shape_transform": Transform2D( 1, 0, 0, 1, 0, 0 )
}, {
"autotile_coord": Vector2( 11, 2 ),
"one_way": false,
"one_way_margin": 1.0,
"shape": SubResource( 35 ),
"shape_transform": Transform2D( 1, 0, 0, 1, 0, 0 )
}, {
"autotile_coord": Vector2( 0, 3 ),
"one_way": false,
"one_way_margin": 1.0,
"shape": SubResource( 36 ),
"shape_transform": Transform2D( 1, 0, 0, 1, 0, 0 )
}, {
"autotile_coord": Vector2( 1, 3 ),
"one_way": false,
"one_way_margin": 1.0,
"shape": SubResource( 37 ),
"shape_transform": Transform2D( 1, 0, 0, 1, 0, 0 )
}, {
"autotile_coord": Vector2( 2, 3 ),
"one_way": false,
"one_way_margin": 1.0,
"shape": SubResource( 38 ),
"shape_transform": Transform2D( 1, 0, 0, 1, 0, 0 )
}, {
"autotile_coord": Vector2( 3, 3 ),
"one_way": false,
"one_way_margin": 1.0,
"shape": SubResource( 39 ),
"shape_transform": Transform2D( 1, 0, 0, 1, 0, 0 )
}, {
"autotile_coord": Vector2( 4, 3 ),
"one_way": false,
"one_way_margin": 1.0,
"shape": SubResource( 40 ),
"shape_transform": Transform2D( 1, 0, 0, 1, 0, 0 )
}, {
"autotile_coord": Vector2( 5, 3 ),
"one_way": false,
"one_way_margin": 1.0,
"shape": SubResource( 41 ),
"shape_transform": Transform2D( 1, 0, 0, 1, 0, 0 )
}, {
"autotile_coord": Vector2( 6, 3 ),
"one_way": false,
"one_way_margin": 1.0,
"shape": SubResource( 42 ),
"shape_transform": Transform2D( 1, 0, 0, 1, 0, 0 )
}, {
"autotile_coord": Vector2( 7, 3 ),
"one_way": false,
"one_way_margin": 1.0,
"shape": SubResource( 43 ),
"shape_transform": Transform2D( 1, 0, 0, 1, 0, 0 )
}, {
"autotile_coord": Vector2( 8, 3 ),
"one_way": false,
"one_way_margin": 1.0,
"shape": SubResource( 44 ),
"shape_transform": Transform2D( 1, 0, 0, 1, 0, 0 )
}, {
"autotile_coord": Vector2( 9, 3 ),
"one_way": false,
"one_way_margin": 1.0,
"shape": SubResource( 45 ),
"shape_transform": Transform2D( 1, 0, 0, 1, 0, 0 )
}, {
"autotile_coord": Vector2( 10, 3 ),
"one_way": false,
"one_way_margin": 1.0,
"shape": SubResource( 46 ),
"shape_transform": Transform2D( 1, 0, 0, 1, 0, 0 )
}, {
"autotile_coord": Vector2( 11, 3 ),
"one_way": false,
"one_way_margin": 1.0,
"shape": SubResource( 47 ),
"shape_transform": Transform2D( 1, 0, 0, 1, 0, 0 )
} ]
0/z_index = 0

[node name="TileMap" type="TileMap"]
tile_set = SubResource( 48 )
cell_size = Vector2( 32, 32 )
format = 1
tile_data = PoolIntArray( -1, 0, 8, -65536, 0, 10, -65535, 0, 10, -65534, 0, 10, -65533, 0, 10, -65532, 0, 10, -65531, 0, 10, -65530, 0, 10, -65529, 0, 10, -65528, 0, 10, -65527, 0, 10, -65526, 0, 10, -65525, 0, 10, -65524, 0, 10, -65523, 0, 10, -65522, 0, 10, -65521, 0, 10, -65520, 0, 10, -65519, 0, 10, -65518, 0, 10, -65517, 0, 10, -65516, 0, 11, 65535, 0, 65544, 0, 0, 131078, 1, 0, 196617, 2, 0, 196617, 3, 0, 196617, 4, 0, 196617, 5, 0, 196617, 6, 0, 196617, 7, 0, 196617, 8, 0, 196617, 9, 0, 196617, 10, 0, 196617, 11, 0, 196617, 12, 0, 196617, 13, 0, 196617, 14, 0, 196617, 15, 0, 196617, 16, 0, 196617, 17, 0, 196617, 18, 0, 131077, 19, 0, 131081, 20, 0, 131083, 131071, 0, 65544, 65536, 0, 131083, 65554, 0, 65544, 65555, 0, 131081, 65556, 0, 131083, 196607, 0, 65544, 131072, 0, 131083, 131089, 0, 1, 131090, 0, 196613, 131091, 0, 131077, 131092, 0, 131083, 262143, 0, 65544, 196608, 0, 131083, 196624, 0, 1, 196625, 0, 131075, 196627, 0, 65544, 196628, 0, 131083, 327679, 0, 65544, 262144, 0, 131083, 262158, 0, 8, 262159, 0, 10, 262160, 0, 65543, 262163, 0, 65544, 262164, 0, 131083, 393215, 0, 65544, 327680, 0, 131083, 327688, 0, 1, 327689, 0, 196610, 327690, 0, 3, 327694, 0, 196616, 327695, 0, 196617, 327696, 0, 196619, 327699, 0, 65544, 327700, 0, 131083, 458751, 0, 65544, 393216, 0, 131083, 393224, 0, 65536, 393226, 0, 65536, 393235, 0, 65544, 393236, 0, 131083, 524287, 0, 65544, 458752, 0, 131083, 458760, 0, 65536, 458762, 0, 65536, 458771, 0, 65544, 458772, 0, 131083, 589817, 0, 196608, 589823, 0, 65544, 524288, 0, 131083, 524294, 0, 196609, 524295, 0, 196610, 524296, 0, 65539, 524298, 0, 131073, 524299, 0, 196610, 524300, 0, 196610, 524301, 0, 3, 524307, 0, 65544, 524308, 0, 131083, 655359, 0, 65544, 589824, 0, 131083, 589832, 0, 65536, 589837, 0, 65536, 589843, 0, 65544, 589844, 0, 131083, 720895, 0, 65544, 655360, 0, 131083, 655368, 0, 131072, 655373, 0, 65536, 655379, 0, 65544, 655380, 0, 131083, 786431, 0, 65544, 720896, 0, 131083, 720899, 0, 1, 720900, 0, 196610, 720901, 0, 196611, 720909, 0, 65537, 720910, 0, 196610, 720911, 0, 3, 720915, 0, 65544, 720916, 0, 131083, 851967, 0, 65544, 786432, 0, 131083, 786435, 0, 65536, 786445, 0, 65536, 786447, 0, 65536, 786451, 0, 65544, 786452, 0, 131083, 917503, 0, 65544, 851968, 0, 131083, 851971, 0, 65536, 851981, 0, 65536, 851983, 0, 65536, 851987, 0, 65544, 851988, 0, 131083, 983039, 0, 65544, 917504, 0, 65542, 917505, 0, 10, 917506, 0, 10, 917507, 0, 9, 917508, 0, 10, 917509, 0, 10, 917510, 0, 10, 917511, 0, 10, 917512, 0, 10, 917513, 0, 10, 917514, 0, 10, 917515, 0, 10, 917516, 0, 10, 917517, 0, 9, 917518, 0, 10, 917519, 0, 9, 917520, 0, 10, 917521, 0, 10, 917522, 0, 10, 917523, 0, 65541, 917524, 0, 131083, 1048575, 0, 196616, 983040, 0, 196617, 983041, 0, 196617, 983042, 0, 196617, 983043, 0, 196617, 983044, 0, 196617, 983045, 0, 196617, 983046, 0, 196617, 983047, 0, 196617, 983048, 0, 196617, 983049, 0, 196617, 983050, 0, 196617, 983051, 0, 196617, 983052, 0, 196617, 983053, 0, 196617, 983054, 0, 196617, 983055, 0, 196617, 983056, 0, 196617, 983057, 0, 196617, 983058, 0, 196617, 983059, 0, 196617, 983060, 0, 196619 )

[node name="Fox" parent="." instance=ExtResource( 2 )]
position = Vector2( 116.635, 259.249 )
