[gd_scene load_steps=2 format=2]

[sub_resource type="GDScript" id=1]
script/source = "extends Node2D

export var frame:Vector2
export var rate:float setget setRate

var t = preload(\"res://Elements/screenEmitter/Point.tscn\")

var timeout = 0

var next = 0

func _ready():
	setRate(rate)

func _process(delta):
	next += delta
	while(next > timeout):
		next -= timeout
		spawn()

func _on_Timer_timeout():
	spawn()
	
	
func spawn():
	var a= t.instance()
	a.position = Vector2((randf()-0.5)*frame.x,(randf()-0.5)*frame.y)
	add_child(a)
	pass # Replace with function body.



func setRate(value):
	rate = value
#	if(has_node(\"Timer\")):
#		if rate != 0:
#			$Timer.wait_time = 1.0/rate
#			$Timer.start()
#		else:
#			$Timer.stop()
	if rate == 0:
		timeout = INF
	else:
		timeout = 1.0 /rate
"

[node name="emitter" type="Node2D"]
z_index = -4
script = SubResource( 1 )
frame = Vector2( 500, 500 )
rate = 0.275

[node name="Timer" type="Timer" parent="."]
wait_time = 0.05
autostart = true
[connection signal="timeout" from="Timer" to="." method="_on_Timer_timeout"]
