[gd_scene load_steps=8 format=2]

[ext_resource path="res://Elements/Tilesetuff/TilesetCore.tscn" type="PackedScene" id=1]
[ext_resource path="res://Elements/GravAreas/GravArea.tscn" type="PackedScene" id=2]
[ext_resource path="res://Elements/FoxCharacter/Fox.tscn" type="PackedScene" id=3]
[ext_resource path="res://Elements/FollowCamera.gd" type="Script" id=4]
[ext_resource path="res://Elements/notes.tscn" type="PackedScene" id=5]

[sub_resource type="GDScript" id=1]
script/source = "extends Node

export var activeGravityPath:NodePath setget setGravPath

var gravities := {}


func _ready():
	var activeGravity = get_node(activeGravityPath)
	for i in get_children():
		gravities[i.name] = i
		if activeGravity == i:
			i.priority = 1
		else:
			i.priority = -1


func makeActive(name):
	for i in gravities:
		if i == name:
			gravities[i].space_override = 1
		else:
			gravities[i].space_override = -1


func setGravPath(value):
	activeGravityPath = value
	var activeGravity = get_node(activeGravityPath)
	if activeGravity:
		makeActive(name)
"

[sub_resource type="CircleShape2D" id=2]
radius = 3730.34

[node name="MainLevel" instance=ExtResource( 1 )]
tile_data = PoolIntArray( -1703961, 0, 8, -1703960, 0, 10, -1703959, 0, 10, -1703958, 0, 10, -1703957, 0, 10, -1703956, 0, 10, -1703955, 0, 10, -1703954, 0, 10, -1703953, 0, 10, -1703952, 0, 10, -1703951, 0, 10, -1703950, 0, 10, -1703949, 0, 10, -1703948, 0, 10, -1703947, 0, 10, -1703946, 0, 10, -1703945, 0, 10, -1703944, 0, 10, -1703943, 0, 10, -1703942, 0, 10, -1703941, 0, 10, -1703940, 0, 10, -1703939, 0, 10, -1703938, 0, 10, -1703937, 0, 10, -1769472, 0, 10, -1769471, 0, 10, -1769470, 0, 10, -1769469, 0, 10, -1769468, 0, 10, -1769467, 0, 10, -1769466, 0, 10, -1769465, 0, 10, -1769464, 0, 10, -1769463, 0, 10, -1769462, 0, 10, -1769461, 0, 10, -1769460, 0, 10, -1769459, 0, 10, -1769458, 0, 10, -1769457, 0, 10, -1769456, 0, 10, -1769455, 0, 10, -1769454, 0, 10, -1769453, 0, 10, -1769452, 0, 10, -1769451, 0, 10, -1769450, 0, 10, -1769449, 0, 10, -1769448, 0, 10, -1769447, 0, 10, -1769446, 0, 10, -1769445, 0, 10, -1769444, 0, 10, -1769443, 0, 10, -1769442, 0, 10, -1769441, 0, 10, -1769440, 0, 10, -1769439, 0, 10, -1769438, 0, 10, -1769437, 0, 10, -1769436, 0, 10, -1769435, 0, 10, -1769434, 0, 10, -1769433, 0, 10, -1769432, 0, 10, -1769431, 0, 10, -1769430, 0, 10, -1769429, 0, 10, -1769428, 0, 11, -1638425, 0, 65544, -1638424, 0, 131078, -1638423, 0, 196617, -1638422, 0, 196617, -1638421, 0, 196617, -1638420, 0, 196617, -1638419, 0, 196617, -1638418, 0, 196617, -1638417, 0, 196617, -1638416, 0, 196617, -1638415, 0, 196617, -1638414, 0, 196617, -1638413, 0, 131077, -1638412, 0, 131078, -1638411, 0, 196617, -1638410, 0, 196617, -1638409, 0, 196617, -1638408, 0, 196617, -1638407, 0, 196617, -1638406, 0, 196617, -1638405, 0, 196617, -1638404, 0, 131077, -1638403, 0, 131078, -1638402, 0, 196617, -1638401, 0, 196617, -1703936, 0, 196617, -1703935, 0, 196617, -1703934, 0, 196617, -1703933, 0, 196617, -1703932, 0, 196617, -1703931, 0, 131077, -1703930, 0, 131078, -1703929, 0, 196617, -1703928, 0, 196617, -1703927, 0, 196617, -1703926, 0, 196617, -1703925, 0, 196617, -1703924, 0, 196617, -1703923, 0, 196617, -1703922, 0, 196617, -1703921, 0, 196617, -1703920, 0, 196617, -1703919, 0, 196617, -1703918, 0, 131077, -1703917, 0, 131078, -1703916, 0, 196617, -1703915, 0, 196617, -1703914, 0, 196617, -1703913, 0, 196617, -1703912, 0, 196617, -1703911, 0, 196617, -1703910, 0, 196617, -1703909, 0, 196617, -1703908, 0, 196617, -1703907, 0, 196617, -1703906, 0, 196617, -1703905, 0, 196617, -1703904, 0, 196617, -1703903, 0, 196617, -1703902, 0, 196617, -1703901, 0, 196617, -1703900, 0, 196617, -1703899, 0, 196617, -1703898, 0, 196617, -1703897, 0, 196617, -1703896, 0, 196617, -1703895, 0, 196617, -1703894, 0, 196617, -1703893, 0, 131077, -1703892, 0, 131083, -1572889, 0, 65544, -1572888, 0, 131083, -1572877, 0, 65544, -1572876, 0, 131083, -1572868, 0, 65544, -1572867, 0, 131083, -1638395, 0, 65544, -1638394, 0, 131083, -1638382, 0, 65544, -1638381, 0, 131083, -1638357, 0, 65544, -1638356, 0, 131083, -1507353, 0, 65544, -1507352, 0, 131083, -1507341, 0, 65544, -1507340, 0, 131083, -1507332, 0, 196616, -1507331, 0, 196619, -1572859, 0, 196616, -1572858, 0, 196619, -1572846, 0, 65544, -1572845, 0, 131083, -1572821, 0, 65544, -1572820, 0, 131083, -1441817, 0, 65544, -1441816, 0, 131083, -1441805, 0, 65544, -1441804, 0, 131083, -1507317, 0, 8, -1507316, 0, 11, -1507310, 0, 65544, -1507309, 0, 131083, -1507304, 0, 8, -1507303, 0, 11, -1507285, 0, 65544, -1507284, 0, 131083, -1376281, 0, 65544, -1376280, 0, 131083, -1376269, 0, 65544, -1376268, 0, 131083, -1441781, 0, 65544, -1441780, 0, 131083, -1441774, 0, 65544, -1441773, 0, 131083, -1441768, 0, 65544, -1441767, 0, 131083, -1441749, 0, 65544, -1441748, 0, 131083, -1310745, 0, 65544, -1310744, 0, 131083, -1310733, 0, 65544, -1310732, 0, 131083, -1376245, 0, 65544, -1376244, 0, 131083, -1376238, 0, 65544, -1376237, 0, 131083, -1376232, 0, 65544, -1376231, 0, 131083, -1376213, 0, 65544, -1376212, 0, 131083, -1245209, 0, 65544, -1245208, 0, 131083, -1245197, 0, 65544, -1245196, 0, 131083, -1310709, 0, 65544, -1310708, 0, 131083, -1310702, 0, 65544, -1310701, 0, 131083, -1310696, 0, 65544, -1310695, 0, 131083, -1310677, 0, 65544, -1310676, 0, 131083, -1179673, 0, 65544, -1179672, 0, 131083, -1179661, 0, 65544, -1179660, 0, 131083, -1245173, 0, 65544, -1245172, 0, 131083, -1245166, 0, 65544, -1245165, 0, 131083, -1245160, 0, 65544, -1245159, 0, 131083, -1245141, 0, 65544, -1245140, 0, 131083, -1114137, 0, 65544, -1114136, 0, 131083, -1114125, 0, 65544, -1114124, 0, 131083, -1179637, 0, 65544, -1179636, 0, 131083, -1179630, 0, 196616, -1179629, 0, 196619, -1179624, 0, 65544, -1179623, 0, 131083, -1179605, 0, 65544, -1179604, 0, 131083, -1048601, 0, 65544, -1048600, 0, 131083, -1048589, 0, 65544, -1048588, 0, 131083, -1114101, 0, 65544, -1114100, 0, 131083, -1114088, 0, 65544, -1114087, 0, 131083, -1114069, 0, 65544, -1114068, 0, 131083, -983065, 0, 65544, -983064, 0, 131083, -983053, 0, 65544, -983052, 0, 131083, -1048565, 0, 65544, -1048564, 0, 131083, -1048552, 0, 65544, -1048551, 0, 131083, -1048533, 0, 65544, -1048532, 0, 131083, -917541, 0, 8, -917540, 0, 10, -917539, 0, 10, -917538, 0, 10, -917537, 0, 10, -917536, 0, 10, -917535, 0, 10, -917534, 0, 10, -917533, 0, 10, -917532, 0, 10, -917531, 0, 10, -917530, 0, 10, -917529, 0, 65541, -917528, 0, 65542, -917527, 0, 10, -917526, 0, 10, -917525, 0, 10, -917524, 0, 10, -917523, 0, 10, -917522, 0, 10, -917521, 0, 10, -917520, 0, 10, -917519, 0, 10, -917518, 0, 10, -917517, 0, 65541, -917516, 0, 131083, -983029, 0, 65544, -983028, 0, 131083, -983022, 0, 8, -983021, 0, 11, -983016, 0, 65544, -983015, 0, 131083, -982997, 0, 65544, -982996, 0, 131083, -852005, 0, 65544, -852004, 0, 131078, -852003, 0, 196617, -852002, 0, 196617, -852001, 0, 196617, -852000, 0, 196617, -851999, 0, 196617, -851998, 0, 196617, -851997, 0, 196617, -851996, 0, 196617, -851995, 0, 196617, -851994, 0, 196617, -851993, 0, 196617, -851992, 0, 196617, -851991, 0, 196617, -851990, 0, 196617, -851989, 0, 196617, -851988, 0, 196617, -851987, 0, 196617, -851986, 0, 196617, -851985, 0, 196617, -851984, 0, 196617, -851983, 0, 196617, -851982, 0, 196617, -851981, 0, 196617, -851980, 0, 196619, -917493, 0, 65544, -917492, 0, 131083, -917486, 0, 65544, -917485, 0, 131083, -917480, 0, 65544, -917479, 0, 131083, -917461, 0, 65544, -917460, 0, 131083, -786469, 0, 65544, -786468, 0, 131083, -786437, 0, 8, -786436, 0, 11, -851966, 0, 8, -851965, 0, 11, -851957, 0, 65544, -851956, 0, 131083, -851950, 0, 65544, -851949, 0, 131083, -851944, 0, 65544, -851943, 0, 131083, -851925, 0, 65544, -851924, 0, 131083, -720933, 0, 65544, -720932, 0, 131083, -720901, 0, 65544, -720900, 0, 131083, -786430, 0, 65544, -786429, 0, 131083, -786421, 0, 65544, -786420, 0, 131083, -786414, 0, 65544, -786413, 0, 131083, -786408, 0, 65544, -786407, 0, 131083, -786389, 0, 65544, -786388, 0, 131083, -655397, 0, 65544, -655396, 0, 131083, -655373, 0, 8, -655372, 0, 10, -655371, 0, 10, -655370, 0, 10, -655369, 0, 10, -655368, 0, 10, -655367, 0, 10, -655366, 0, 10, -655365, 0, 65541, -655364, 0, 65542, -655363, 0, 10, -655362, 0, 10, -655361, 0, 10, -720896, 0, 10, -720895, 0, 10, -720894, 0, 65541, -720893, 0, 65542, -720892, 0, 10, -720891, 0, 10, -720890, 0, 10, -720889, 0, 10, -720888, 0, 10, -720887, 0, 10, -720886, 0, 10, -720885, 0, 65541, -720884, 0, 131083, -720878, 0, 65544, -720877, 0, 65542, -720876, 0, 10, -720875, 0, 10, -720874, 0, 10, -720873, 0, 10, -720872, 0, 65541, -720871, 0, 131083, -720853, 0, 65544, -720852, 0, 65542, -720851, 0, 10, -720850, 0, 10, -720849, 0, 10, -720848, 0, 10, -720847, 0, 10, -720846, 0, 10, -720845, 0, 11, -589861, 0, 65544, -589860, 0, 131083, -589837, 0, 65544, -589836, 0, 131078, -589835, 0, 196617, -589834, 0, 196617, -589833, 0, 196617, -589832, 0, 196617, -589831, 0, 196617, -589830, 0, 196617, -589829, 0, 196617, -589828, 0, 196617, -589827, 0, 196617, -589826, 0, 196617, -589825, 0, 196617, -655360, 0, 196617, -655359, 0, 196617, -655358, 0, 196617, -655357, 0, 196617, -655356, 0, 196617, -655355, 0, 196617, -655354, 0, 196617, -655353, 0, 196617, -655352, 0, 196617, -655351, 0, 196617, -655350, 0, 196617, -655349, 0, 131077, -655348, 0, 131083, -655342, 0, 65544, -655341, 0, 131078, -655340, 0, 196617, -655339, 0, 196617, -655338, 0, 196617, -655337, 0, 196617, -655336, 0, 196617, -655335, 0, 196619, -655317, 0, 196616, -655316, 0, 196617, -655315, 0, 196617, -655314, 0, 196617, -655313, 0, 196617, -655312, 0, 196618, -655311, 0, 196617, -655310, 0, 196617, -655309, 0, 196614, -655308, 0, 3, -524325, 0, 65544, -524324, 0, 131083, -524301, 0, 65544, -524300, 0, 131083, -589813, 0, 65544, -589812, 0, 131083, -589806, 0, 65544, -589805, 0, 131083, -589776, 0, 131072, -589772, 0, 131073, -589771, 0, 3, -458789, 0, 65544, -458788, 0, 131083, -458765, 0, 65544, -458764, 0, 131083, -524277, 0, 65544, -524276, 0, 131083, -524270, 0, 196616, -524269, 0, 196619, -524235, 0, 131073, -524234, 0, 3, -393253, 0, 65544, -393252, 0, 131083, -393229, 0, 65544, -393228, 0, 131083, -458741, 0, 65544, -458740, 0, 131083, -458709, 0, 8, -458708, 0, 11, -458698, 0, 131073, -458697, 0, 3, -327717, 0, 65544, -327716, 0, 131083, -327693, 0, 65544, -327692, 0, 131083, -393205, 0, 65544, -393204, 0, 131083, -393173, 0, 65544, -393172, 0, 131083, -393161, 0, 131073, -393160, 0, 3, -262181, 0, 65544, -262180, 0, 131083, -262157, 0, 65544, -262156, 0, 131083, -327669, 0, 65544, -327668, 0, 131083, -327637, 0, 65544, -327636, 0, 131083, -327624, 0, 131073, -327623, 0, 3, -196645, 0, 65544, -196644, 0, 131083, -196621, 0, 65544, -196620, 0, 131083, -262133, 0, 65544, -262132, 0, 131083, -262101, 0, 65544, -262100, 0, 131083, -262087, 0, 131073, -262086, 0, 3, -131109, 0, 65544, -131108, 0, 131083, -131085, 0, 65544, -131084, 0, 131083, -196597, 0, 65544, -196596, 0, 65542, -196595, 0, 10, -196594, 0, 10, -196593, 0, 10, -196592, 0, 10, -196591, 0, 10, -196590, 0, 10, -196589, 0, 10, -196588, 0, 10, -196587, 0, 10, -196586, 0, 10, -196585, 0, 10, -196584, 0, 10, -196583, 0, 10, -196582, 0, 10, -196581, 0, 10, -196580, 0, 10, -196579, 0, 10, -196578, 0, 10, -196577, 0, 10, -196576, 0, 10, -196575, 0, 10, -196574, 0, 10, -196573, 0, 10, -196572, 0, 10, -196571, 0, 10, -196570, 0, 10, -196569, 0, 10, -196568, 0, 10, -196567, 0, 10, -196566, 0, 10, -196565, 0, 65541, -196564, 0, 131083, -196550, 0, 65540, -196549, 0, 11, -65573, 0, 65544, -65572, 0, 131083, -65549, 0, 65544, -65548, 0, 131083, -131061, 0, 65544, -131060, 0, 131078, -131059, 0, 196617, -131058, 0, 196617, -131057, 0, 196617, -131056, 0, 196617, -131055, 0, 196617, -131054, 0, 196617, -131053, 0, 196617, -131052, 0, 196617, -131051, 0, 196617, -131050, 0, 196617, -131049, 0, 196617, -131048, 0, 196617, -131047, 0, 196617, -131046, 0, 196617, -131045, 0, 196617, -131044, 0, 196617, -131043, 0, 196617, -131042, 0, 196617, -131041, 0, 196617, -131040, 0, 196617, -131039, 0, 196617, -131038, 0, 196617, -131037, 0, 196617, -131036, 0, 196617, -131035, 0, 196617, -131034, 0, 196617, -131033, 0, 196617, -131032, 0, 196617, -131031, 0, 196617, -131030, 0, 196617, -131029, 0, 131077, -131028, 0, 131083, -131014, 0, 131076, -131013, 0, 196619, -37, 0, 65544, -36, 0, 131083, -13, 0, 65544, -12, 0, 131083, -65525, 0, 65544, -65524, 0, 131083, -65493, 0, 65544, -65492, 0, 131083, -65479, 0, 1, -65478, 0, 131075, 65499, 0, 65544, 65500, 0, 131083, 65523, 0, 65544, 65524, 0, 131083, 11, 0, 65544, 12, 0, 131083, 43, 0, 65544, 44, 0, 131083, 56, 0, 1, 57, 0, 131075, 131035, 0, 65544, 131036, 0, 131083, 131059, 0, 65544, 131060, 0, 131083, 65547, 0, 65544, 65548, 0, 131083, 65579, 0, 65544, 65580, 0, 131083, 65591, 0, 1, 65592, 0, 131075, 196571, 0, 65544, 196572, 0, 131083, 196595, 0, 65544, 196596, 0, 131083, 131083, 0, 65544, 131084, 0, 131083, 131115, 0, 65544, 131116, 0, 131083, 131126, 0, 1, 131127, 0, 131075, 262107, 0, 65544, 262108, 0, 131083, 262131, 0, 65544, 262132, 0, 131083, 196619, 0, 65544, 196620, 0, 131083, 196651, 0, 65544, 196652, 0, 131083, 196661, 0, 1, 196662, 0, 131075, 327643, 0, 65544, 327644, 0, 131083, 327667, 0, 65544, 327668, 0, 131083, 262155, 0, 65544, 262156, 0, 131083, 262187, 0, 65544, 262188, 0, 131083, 262196, 0, 1, 262197, 0, 131075, 393179, 0, 65544, 393180, 0, 131083, 393203, 0, 65544, 393204, 0, 65542, 393205, 0, 10, 393206, 0, 10, 393207, 0, 10, 393208, 0, 10, 393209, 0, 10, 393210, 0, 10, 393211, 0, 10, 393212, 0, 10, 393213, 0, 10, 393214, 0, 10, 393215, 0, 10, 327680, 0, 10, 327681, 0, 10, 327682, 0, 10, 327683, 0, 10, 327684, 0, 10, 327685, 0, 10, 327686, 0, 10, 327687, 0, 10, 327688, 0, 10, 327689, 0, 10, 327690, 0, 10, 327691, 0, 65541, 327692, 0, 131083, 327723, 0, 65544, 327724, 0, 65542, 327725, 0, 10, 327726, 0, 10, 327727, 0, 10, 327728, 0, 10, 327729, 0, 10, 327730, 0, 10, 327731, 0, 6, 327732, 0, 131075, 458715, 0, 65544, 458716, 0, 131083, 458739, 0, 65544, 458740, 0, 131078, 458741, 0, 196617, 458742, 0, 196617, 458743, 0, 196617, 458744, 0, 196617, 458745, 0, 196617, 458746, 0, 196617, 458747, 0, 196617, 458748, 0, 196617, 458749, 0, 196617, 458750, 0, 196617, 458751, 0, 196617, 393216, 0, 196617, 393217, 0, 196617, 393218, 0, 196617, 393219, 0, 196617, 393220, 0, 196617, 393221, 0, 196617, 393222, 0, 196617, 393223, 0, 196617, 393224, 0, 196617, 393225, 0, 196617, 393226, 0, 196617, 393227, 0, 196617, 393228, 0, 196619, 393259, 0, 65544, 393260, 0, 131078, 393261, 0, 196617, 393262, 0, 196617, 393263, 0, 196617, 393264, 0, 196617, 393265, 0, 196617, 393266, 0, 196617, 393267, 0, 196619, 524251, 0, 65544, 524252, 0, 131083, 524275, 0, 65544, 524276, 0, 131083, 458758, 1, 0, 458759, 1, 0, 458760, 1, 0, 458795, 0, 65544, 458796, 0, 131083, 589787, 0, 65544, 589788, 0, 131083, 589811, 0, 65544, 589812, 0, 131083, 524331, 0, 65544, 524332, 0, 131083, 655323, 0, 65544, 655324, 0, 65542, 655325, 0, 10, 655326, 0, 10, 655327, 0, 10, 655328, 0, 10, 655329, 0, 10, 655330, 0, 10, 655331, 0, 10, 655332, 0, 10, 655333, 0, 10, 655334, 0, 10, 655335, 0, 10, 655336, 0, 10, 655337, 0, 10, 655338, 0, 10, 655339, 0, 10, 655340, 0, 10, 655341, 0, 10, 655342, 0, 10, 655343, 0, 10, 655344, 0, 10, 655345, 0, 10, 655346, 0, 10, 655347, 0, 65541, 655348, 0, 131083, 589843, 1, 0, 589844, 1, 0, 589867, 0, 65544, 589868, 0, 131083, 720859, 0, 196616, 720860, 0, 196617, 720861, 0, 196617, 720862, 0, 196617, 720863, 0, 196617, 720864, 0, 196617, 720865, 0, 196617, 720866, 0, 196617, 720867, 0, 196617, 720868, 0, 196617, 720869, 0, 196617, 720870, 0, 196617, 720871, 0, 196617, 720872, 0, 196617, 720873, 0, 196617, 720874, 0, 196617, 720875, 0, 196617, 720876, 0, 196617, 720877, 0, 196617, 720878, 0, 196617, 720879, 0, 196617, 720880, 0, 196617, 720881, 0, 196617, 720882, 0, 196617, 720883, 0, 131077, 720884, 0, 131083, 655378, 1, 0, 655379, 1, 0, 655403, 0, 65544, 655404, 0, 131083, 786419, 0, 65544, 786420, 0, 131083, 720939, 0, 65544, 720940, 0, 131083, 851955, 0, 65544, 851956, 0, 131083, 786475, 0, 65544, 786476, 0, 131083, 917491, 0, 65544, 917492, 0, 131083, 852011, 0, 65544, 852012, 0, 131083, 983027, 0, 65544, 983028, 0, 131083, 917547, 0, 65544, 917548, 0, 131083, 1048563, 0, 65544, 1048564, 0, 131083, 983083, 0, 65544, 983084, 0, 131083, 1114099, 0, 65544, 1114100, 0, 131083, 1048619, 0, 65544, 1048620, 0, 131083, 1179635, 0, 65544, 1179636, 0, 131083, 1114155, 0, 65544, 1114156, 0, 131083, 1245171, 0, 65544, 1245172, 0, 131083, 1179691, 0, 65544, 1179692, 0, 131083, 1310707, 0, 65544, 1310708, 0, 131083, 1245227, 0, 65544, 1245228, 0, 131083, 1376243, 0, 65544, 1376244, 0, 131083, 1310763, 0, 65544, 1310764, 0, 131083, 1441779, 0, 65544, 1441780, 0, 65542, 1441781, 0, 10, 1441782, 0, 10, 1441783, 0, 10, 1441784, 0, 10, 1441785, 0, 10, 1441786, 0, 10, 1441787, 0, 10, 1441788, 0, 10, 1441789, 0, 10, 1441790, 0, 10, 1441791, 0, 10, 1376256, 0, 10, 1376257, 0, 10, 1376258, 0, 10, 1376259, 0, 10, 1376260, 0, 10, 1376261, 0, 10, 1376262, 0, 10, 1376263, 0, 10, 1376264, 0, 10, 1376265, 0, 10, 1376266, 0, 10, 1376267, 0, 10, 1376268, 0, 10, 1376269, 0, 10, 1376270, 0, 10, 1376271, 0, 10, 1376272, 0, 10, 1376273, 0, 10, 1376274, 0, 10, 1376275, 0, 10, 1376276, 0, 10, 1376277, 0, 10, 1376278, 0, 10, 1376279, 0, 10, 1376280, 0, 10, 1376281, 0, 10, 1376282, 0, 10, 1376283, 0, 10, 1376284, 0, 10, 1376285, 0, 10, 1376286, 0, 10, 1376287, 0, 10, 1376288, 0, 10, 1376289, 0, 10, 1376290, 0, 10, 1376291, 0, 10, 1376292, 0, 10, 1376293, 0, 10, 1376294, 0, 10, 1376295, 0, 10, 1376296, 0, 10, 1376297, 0, 10, 1376298, 0, 10, 1376299, 0, 65541, 1376300, 0, 131083, 1507315, 0, 196616, 1507316, 0, 196617, 1507317, 0, 196617, 1507318, 0, 196617, 1507319, 0, 196617, 1507320, 0, 196617, 1507321, 0, 196617, 1507322, 0, 196617, 1507323, 0, 196617, 1507324, 0, 196617, 1507325, 0, 196617, 1507326, 0, 196617, 1507327, 0, 196617, 1441792, 0, 196617, 1441793, 0, 196617, 1441794, 0, 196617, 1441795, 0, 196617, 1441796, 0, 196617, 1441797, 0, 196617, 1441798, 0, 196617, 1441799, 0, 196617, 1441800, 0, 196617, 1441801, 0, 196617, 1441802, 0, 196617, 1441803, 0, 196617, 1441804, 0, 196617, 1441805, 0, 196617, 1441806, 0, 196617, 1441807, 0, 196617, 1441808, 0, 196617, 1441809, 0, 196617, 1441810, 0, 196617, 1441811, 0, 196617, 1441812, 0, 196617, 1441813, 0, 196617, 1441814, 0, 196617, 1441815, 0, 196617, 1441816, 0, 196617, 1441817, 0, 196617, 1441818, 0, 196617, 1441819, 0, 196617, 1441820, 0, 196617, 1441821, 0, 196617, 1441822, 0, 196617, 1441823, 0, 196617, 1441824, 0, 196617, 1441825, 0, 196617, 1441826, 0, 196617, 1441827, 0, 196617, 1441828, 0, 196617, 1441829, 0, 196617, 1441830, 0, 196617, 1441831, 0, 196617, 1441832, 0, 196617, 1441833, 0, 196617, 1441834, 0, 196617, 1441835, 0, 196617, 1441836, 0, 196619 )

[node name="Character" parent="." index="0" instance=ExtResource( 3 )]
position = Vector2( -248, -390 )
active = true

[node name="Camera2D" type="Camera2D" parent="." index="1"]
position = Vector2( -248, -390 )
rotating = true
current = true
zoom = Vector2( 0.5, 0.5 )
script = ExtResource( 4 )
target = NodePath("../Character")

[node name="notes" parent="." index="2" instance=ExtResource( 5 )]
scale = Vector2( 8, 8 )
z_index = -1

[node name="Gravities" type="Node" parent="." index="3"]
script = SubResource( 1 )
activeGravityPath = NodePath("ThrustGravity")

[node name="SpinGravity" parent="Gravities" index="0" instance=ExtResource( 2 )]
rotation = 1.5708
gravity_point = true
gravity_vec = Vector2( 0, -1 )

[node name="CollisionShape2D" type="CollisionShape2D" parent="Gravities/SpinGravity" index="0"]
shape = SubResource( 2 )

[node name="ThrustGravity" parent="Gravities" index="1" instance=ExtResource( 2 )]
gravity_vec = Vector2( -1, 0 )

[node name="CollisionShape2D" type="CollisionShape2D" parent="Gravities/ThrustGravity" index="0"]
shape = SubResource( 2 )
