[gd_scene load_steps=5 format=2]

[ext_resource path="res://Elements/baseTileset.tres" type="TileSet" id=1]
[ext_resource path="res://Elements/FoxCharacter/Fox.tscn" type="PackedScene" id=2]

[sub_resource type="GDScript" id=1]
script/source = "extends Camera2D

export var target:NodePath

export var rotateSpeed:float=1

func _ready():
	var a := RemoteTransform2D.new() #todo cleanup if this moves at some point
	a.update_rotation = false
	get_node(target).add_child(a)
	a.remote_path = get_path()




func _process(delta):
	var t:Node2D= get_node(target)
	rotation = lerp_angle(rotation,t.rotation,delta/rotateSpeed)
#	var deltaRot = fmod( rotation - t.rotation + (2* TAU),TAU ) #fucking brute force normalized
#	if deltaRot == 0:
#		return
#
#
#
#	if deltaRot > PI:
#		rotation += rotateSpeed*delta
#		if rotation - t.rotation > 0:
#			rotation = t.rotation
#	else:
#		rotation -= rotateSpeed*delta
"

[sub_resource type="GDScript" id=2]
script/source = "extends CanvasLayer

export var camera:NodePath


export var gravPointer:NodePath
export var XSlider:NodePath
export var YSlider:NodePath

var currentGravity:Vector2




func _ready():
	currentGravity = get_node(gravPointer).gravity
	get_node(XSlider).value = currentGravity.x
	get_node(YSlider).value = currentGravity.y
#	$Help.visible = !$GravControl.visible



func _process(delta):
	currentGravity = get_node(gravPointer).gravity
	$GravControl.rect_rotation = -rad2deg(get_node(camera).rotation) 
	
	if Input.is_action_just_pressed(\"debugUI\"):
#		$Help.visible = $GravControl.visible
		$GravControl.visible = !$GravControl.visible
	


func XValueChanged(value):
	get_node(gravPointer).gravity.x = value
func YValueChanged(value):
	get_node(gravPointer).gravity.y = -value
"

[node name="TileMap" type="TileMap"]
tile_set = ExtResource( 1 )
cell_size = Vector2( 32, 32 )
format = 1
tile_data = PoolIntArray( -655315, 0, 0, -589779, 0, 131072, -65537, 0, 8, -131072, 0, 10, -131071, 0, 10, -131070, 0, 10, -131069, 0, 10, -131068, 0, 10, -131067, 0, 10, -131066, 0, 10, -131065, 0, 10, -131064, 0, 10, -131063, 0, 10, -131062, 0, 10, -131061, 0, 10, -131060, 0, 10, -131059, 0, 10, -131058, 0, 10, -131057, 0, 10, -131056, 0, 10, -131055, 0, 10, -131054, 0, 10, -131053, 0, 10, -131052, 0, 10, -131051, 0, 10, -131050, 0, 10, -131049, 0, 10, -131048, 0, 10, -131047, 0, 10, -131046, 0, 10, -131045, 0, 10, -131044, 0, 10, -131043, 0, 10, -131042, 0, 10, -131041, 0, 10, -131040, 0, 10, -131039, 0, 10, -131038, 0, 10, -131037, 0, 10, -131036, 0, 10, -131035, 0, 11, -1, 0, 65544, -65536, 0, 131078, -65535, 0, 196617, -65534, 0, 196617, -65533, 0, 196617, -65532, 0, 196617, -65531, 0, 196617, -65530, 0, 196617, -65529, 0, 196617, -65528, 0, 196617, -65527, 0, 196617, -65526, 0, 196617, -65525, 0, 196617, -65524, 0, 196617, -65523, 0, 196617, -65522, 0, 196617, -65521, 0, 196617, -65520, 0, 196617, -65519, 0, 196617, -65518, 0, 196617, -65517, 0, 196617, -65516, 0, 196617, -65515, 0, 196617, -65514, 0, 196617, -65513, 0, 196617, -65512, 0, 196617, -65511, 0, 196617, -65510, 0, 196617, -65509, 0, 196617, -65508, 0, 196617, -65507, 0, 196617, -65506, 0, 196617, -65505, 0, 196617, -65504, 0, 196617, -65503, 0, 196617, -65502, 0, 196617, -65501, 0, 196617, -65500, 0, 131077, -65499, 0, 131083, 65535, 0, 65544, 0, 0, 131083, 36, 0, 65544, 37, 0, 131083, 131071, 0, 65544, 65536, 0, 131083, 65572, 0, 65544, 65573, 0, 131083, 196607, 0, 65544, 131072, 0, 131083, 131089, 0, 1, 131090, 0, 196610, 131091, 0, 5, 131092, 0, 11, 131108, 0, 65544, 131109, 0, 131083, 262143, 0, 65544, 196608, 0, 65547, 196609, 0, 196610, 196610, 0, 196610, 196611, 0, 196610, 196612, 0, 196611, 196624, 0, 8, 196625, 0, 65543, 196627, 0, 65544, 196628, 0, 65542, 196629, 0, 10, 196630, 0, 10, 196631, 0, 11, 196644, 0, 65544, 196645, 0, 131083, 327679, 0, 65544, 262144, 0, 131083, 262158, 0, 196609, 262159, 0, 196610, 262160, 0, 196613, 262161, 0, 196619, 262163, 0, 65544, 262164, 0, 131081, 262165, 0, 131081, 262166, 0, 131081, 262167, 0, 65542, 262168, 0, 10, 262169, 0, 10, 262170, 0, 11, 262175, 0, 8, 262176, 0, 6, 262177, 0, 196610, 262178, 0, 196611, 262180, 0, 65544, 262181, 0, 131083, 393215, 0, 65544, 327680, 0, 131083, 327687, 0, 196609, 327688, 0, 2, 327689, 0, 196610, 327690, 0, 3, 327699, 0, 65544, 327700, 0, 131081, 327701, 0, 131078, 327702, 0, 196617, 327703, 0, 196617, 327704, 0, 196617, 327705, 0, 196617, 327706, 0, 196619, 327711, 0, 65544, 327712, 0, 131083, 327716, 0, 65544, 327717, 0, 131083, 458751, 0, 65544, 393216, 0, 131083, 393219, 0, 196609, 393220, 0, 196611, 393224, 0, 65536, 393226, 0, 65536, 393235, 0, 65544, 393236, 0, 131081, 393237, 0, 131083, 393247, 0, 65544, 393248, 0, 131083, 393252, 0, 65544, 393253, 0, 131083, 524287, 0, 65544, 458752, 0, 131083, 458760, 0, 65536, 458762, 0, 65536, 458771, 0, 65544, 458772, 0, 131081, 458773, 0, 131083, 458783, 0, 65544, 458784, 0, 131083, 458788, 0, 65544, 458789, 0, 131083, 589823, 0, 65544, 524288, 0, 131083, 524294, 0, 196609, 524295, 0, 196610, 524296, 0, 65539, 524298, 0, 131073, 524299, 0, 196610, 524300, 0, 196610, 524301, 0, 3, 524307, 0, 65544, 524308, 0, 131081, 524309, 0, 131083, 524315, 0, 8, 524316, 0, 10, 524317, 0, 10, 524318, 0, 10, 524319, 0, 65541, 524320, 0, 131083, 524323, 0, 196609, 524324, 0, 196613, 524325, 0, 131079, 655359, 0, 65544, 589824, 0, 131083, 589832, 0, 65536, 589837, 0, 65536, 589843, 0, 196616, 589844, 0, 196617, 589845, 0, 196619, 589851, 0, 131076, 589852, 0, 196617, 589853, 0, 196617, 589854, 0, 196617, 589855, 0, 196617, 589856, 0, 131079, 589861, 0, 65536, 720895, 0, 65544, 655360, 0, 131083, 655368, 0, 131072, 655373, 0, 65536, 655385, 0, 196609, 655386, 0, 196610, 655387, 0, 131075, 655392, 0, 65536, 655397, 0, 65536, 786431, 0, 65544, 720896, 0, 131083, 720898, 0, 1, 720899, 0, 196610, 720900, 0, 196610, 720901, 0, 196611, 720909, 0, 65540, 720910, 0, 10, 720911, 0, 11, 720928, 0, 65536, 720933, 0, 65536, 851967, 0, 65544, 786432, 0, 131083, 786434, 0, 65536, 786445, 0, 65544, 786446, 0, 131081, 786447, 0, 131083, 786464, 0, 65537, 786465, 0, 196610, 786466, 0, 196611, 786469, 0, 65536, 917503, 0, 65544, 851968, 0, 131083, 851970, 0, 65536, 851981, 0, 65544, 851982, 0, 131081, 851983, 0, 131083, 852000, 0, 65536, 852005, 0, 65536, 983039, 0, 65544, 917504, 0, 65542, 917505, 0, 10, 917506, 0, 9, 917507, 0, 10, 917508, 0, 10, 917509, 0, 10, 917510, 0, 10, 917511, 0, 10, 917512, 0, 10, 917513, 0, 10, 917514, 0, 10, 917515, 0, 10, 917516, 0, 10, 917517, 0, 65541, 917518, 0, 131081, 917519, 0, 65542, 917520, 0, 10, 917521, 0, 10, 917522, 0, 10, 917523, 0, 10, 917524, 0, 10, 917525, 0, 10, 917526, 0, 10, 917527, 0, 10, 917528, 0, 10, 917529, 0, 10, 917530, 0, 10, 917531, 0, 10, 917532, 0, 10, 917533, 0, 10, 917534, 0, 10, 917535, 0, 10, 917536, 0, 65543, 917541, 0, 65536, 1048575, 0, 196616, 983040, 0, 196617, 983041, 0, 196617, 983042, 0, 196617, 983043, 0, 196617, 983044, 0, 196617, 983045, 0, 196617, 983046, 0, 196617, 983047, 0, 196617, 983048, 0, 196617, 983049, 0, 196617, 983050, 0, 196617, 983051, 0, 196617, 983052, 0, 196617, 983053, 0, 196617, 983054, 0, 196617, 983055, 0, 196617, 983056, 0, 196617, 983057, 0, 196617, 983058, 0, 196617, 983059, 0, 196617, 983060, 0, 196617, 983061, 0, 196617, 983062, 0, 196617, 983063, 0, 196617, 983064, 0, 196617, 983065, 0, 196617, 983066, 0, 196617, 983067, 0, 196617, 983068, 0, 196617, 983069, 0, 196617, 983070, 0, 196617, 983071, 0, 196617, 983072, 0, 196614, 983073, 0, 196610, 983074, 0, 196610, 983075, 0, 196610, 983076, 0, 196610, 983077, 0, 131075 )

[node name="Camera2D" type="Camera2D" parent="."]
position = Vector2( 362, 346 )
rotating = true
current = true
zoom = Vector2( 0.4, 0.4 )
script = SubResource( 1 )
target = NodePath("../Fox")
rotateSpeed = 0.2

[node name="Fox" parent="." instance=ExtResource( 2 )]
position = Vector2( 362, 346 )
rotation = -1.51344

[node name="TestGravityMessing" type="CanvasLayer" parent="."]
script = SubResource( 2 )
camera = NodePath("../Camera2D")
gravPointer = NodePath("../Fox")
XSlider = NodePath("GravControl/HSlider")
YSlider = NodePath("GravControl/VSlider")

[node name="Help" type="MarginContainer" parent="TestGravityMessing"]
margin_right = 236.0
margin_bottom = 40.0
custom_constants/margin_right = 4
custom_constants/margin_top = 4
custom_constants/margin_left = 4
custom_constants/margin_bottom = 4
__meta__ = {
"_edit_use_anchors_": false
}

[node name="Label" type="Label" parent="TestGravityMessing/Help"]
margin_left = 4.0
margin_top = 13.0
margin_right = 232.0
margin_bottom = 27.0
text = "Press F to toggle debug grav control"

[node name="GravControl" type="CenterContainer" parent="TestGravityMessing"]
margin_right = 250.0
margin_bottom = 250.0
rect_rotation = -139.5
rect_pivot_offset = Vector2( 125, 125 )
__meta__ = {
"_edit_use_anchors_": false
}

[node name="HSlider" type="HSlider" parent="TestGravityMessing/GravControl"]
margin_top = 117.0
margin_right = 250.0
margin_bottom = 133.0
rect_min_size = Vector2( 250, 0 )
min_value = -250.0
max_value = 250.0
step = 5.0
tick_count = 25
ticks_on_borders = true

[node name="VSlider" type="VSlider" parent="TestGravityMessing/GravControl"]
margin_left = 117.0
margin_right = 133.0
margin_bottom = 250.0
rect_min_size = Vector2( 0, 250 )
min_value = -250.0
max_value = 250.0
step = 5.0
tick_count = 25
ticks_on_borders = true
[connection signal="value_changed" from="TestGravityMessing/GravControl/HSlider" to="TestGravityMessing" method="XValueChanged"]
[connection signal="value_changed" from="TestGravityMessing/GravControl/VSlider" to="TestGravityMessing" method="YValueChanged"]
