[gd_scene load_steps=2 format=2]

[ext_resource path="res://Assets/monochrome_transparent_packed.png" type="Texture" id=1]

[node name="monochrome_transparent_packed" type="Sprite"]
scale = Vector2( 0.062, 0.062 )
texture = ExtResource( 1 )
centered = false
